a)
int counts[10] = { 0 };

b)
int bonus[15] = { 1, 1, 1, 1, 1, 1, 1, 1, 1, 1, 1, 1, 1, 1, 1 };

c)
double mountTemperature[15];
for (int i = 0; i < 15; i++)
std::cin >> mountTemperature[i];

d)
int bestScores[5] = { 0};
for (int i = 0; i < 5; i++)
std::cout << bestScores[i] << std::endl;
