a) std::cout << f [ 6 ] << std::endl;
b) double  b [ 4 ];
	std::cin >> b [ 3 ] ;
c) int g [ 5 ] = { 8, 8, 8, 8, 8 };
d)
double total = 0; 
for (int  i = 0; i < 100; i++) 
{ 
    total += g [ i ]; 
} 
std::cout << total;

e) for (i = 0; i < 11; i++)
{
    b[ i ] = a [ i ];
}

f )
srand(time(0));

const int araySize = 99;
double w[araySize];
double max = a[0];
double min = a[0];
 
for (int i = 0; i < araySize; i++) {
    w[i] = rand() % 100 * 1.23;
}
for (int i = 0; i < ; i++) {
    std::cout << std::setw(2) << i + 1 << std::setw(10) << w[i] << std::endl;
}
std::cout << std::endl;

for(int i = 0 ; i < araySize - 1; i++ ) {
    if (max < a[i + 1])
    max = a[i + 1];
    if (min > a[i + 1])
    min = a[i + 1];
}

std::cout << "minimum number is: " << min << std::endl;
std::cout << "maxsimum number is: "  << max << std::endl;


