a)    cout << "input two numbers"
b)    c = a * b
c)    /// The program performes payroll calculations
d)    int a;
      int b;
      int c;

      cout << "a = ";
      cin >> a;
  
      cout << "b = ";
      cin >> b;

      cout << "c = ";
      cin >> b;
