Enter the count 6's divisors are 1  2  3  
28's divisors are 1  2  4  7  14  
496's divisors are 1  2  4  8  16  31  62  124  248  
8128's divisors are 1  2  4  8  16  32  64  127  254  508  1016  2032  4064  
